[{
    "presave":{
        "title": "Title of track",
        "presave_type": "Single or Album",
        "release_date": "12-04-2024",
        "album_title": "Title or 'Single'",
        "genre": "String",
        "tracks": [
            {
                "title": "Track 1",
                "mp3": "https://soundly.live/u/{uuid}/t/{track_id}",
                "song_link": ""
            }
        ],
        "artists":[
            {
                "name": "Whatever",
                "_id": "uuid" 
            }
        ],
        "analytics":[
            {
                "analytics_provide": "Google",
                "uuid": "tag"
            }

        ],
        "url": "shortlink or slug (premium)",
        "page_styles":{
            "primary_color": "Red",
            "secondary_color": "Blue",
            "font_style": "Roboto",
            "bg_img": "Default or img"
        }
    }
},{
    "artist":{
        "avatar": "",
        "first_name": "",
        "last_name": "",
        "email": "",
        "password": "",
        "presave_links": [
            {
                "title": "Track 01",
                "presave_link": "Link to presave",
                "thumbnail": "Link to album art thumbnail"
            }
        ],
        "external_links":[
            {
                "type": "Snapchat",
                "handle": "",
                "link_text": ""
            }
        ],
        "events": [
            {
                "uuid":""
            }
        ],
        "page_styles":{
            "primary_color": "Red",
            "secondary_color": "Blue",
            "font_style": "Roboto",
            "bg_img": "Default or img"
        }
    }
},{
    "short_link":{
        "shortened_link": "",
        "href": "",
        "owner": "uuid",
        "visited": "number"
    }    
},
{
    "event":{
        "thumbnails": [],
        "title": "",
        "artists":[
            {
                "artist_image": "",
                "artist_name": "",
                "artist_link": "",
                "description": ""
            }
        ],
        "age_restriction": "",
        "ticket_links":[],
        "description":"",
        "organizer_socials":[]
    }    
}]
